C:\Users\Giusi\ConsigliaViaggiMaven\src\main\java\DAO\LoginDAO.java
C:\Users\Giusi\ConsigliaViaggiMaven\src\main\java\presenter\RecensioneCell.java
C:\Users\Giusi\ConsigliaViaggiMaven\src\main\java\DAO\S3API.java
C:\Users\Giusi\ConsigliaViaggiMaven\src\main\java\presenter\LoginPresenter.java
C:\Users\Giusi\ConsigliaViaggiMaven\src\main\java\interfaces\RicercaIndirizzo.java
C:\Users\Giusi\ConsigliaViaggiMaven\src\main\java\model\FotoModel.java
C:\Users\Giusi\ConsigliaViaggiMaven\src\main\java\presenter\StrutturaCell.java
C:\Users\Giusi\ConsigliaViaggiMaven\src\main\java\presenter\VisualizzaRecensionePresenter.java
C:\Users\Giusi\ConsigliaViaggiMaven\src\main\java\model\RecensioneModel.java
C:\Users\Giusi\ConsigliaViaggiMaven\src\main\java\DAO\DBManager.java
C:\Users\Giusi\ConsigliaViaggiMaven\src\main\java\interfaces\MenuUtils.java
C:\Users\Giusi\ConsigliaViaggiMaven\src\main\java\presenter\FotoDaVisualizzareCell.java
C:\Users\Giusi\ConsigliaViaggiMaven\src\main\java\presenter\RecensionePresenter.java
C:\Users\Giusi\ConsigliaViaggiMaven\src\main\java\model\StrutturaModel.java
C:\Users\Giusi\ConsigliaViaggiMaven\src\main\java\DAO\StrutturaDAO.java
C:\Users\Giusi\ConsigliaViaggiMaven\src\main\java\presenter\AggiungiStrutturaPresenter.java
C:\Users\Giusi\ConsigliaViaggiMaven\src\main\java\DAO\FotoDAO.java
C:\Users\Giusi\ConsigliaViaggiMaven\src\main\java\presenter\VisualizzaStrutturaPresenter.java
C:\Users\Giusi\ConsigliaViaggiMaven\src\main\java\DAO\RecensioneDAO.java
C:\Users\Giusi\ConsigliaViaggiMaven\src\main\java\presenter\ModificaStrutturaPresenter.java
C:\Users\Giusi\ConsigliaViaggiMaven\src\main\java\model\CoordinateModel.java
C:\Users\Giusi\ConsigliaViaggiMaven\src\main\java\consigliaviaggi\MainApp.java
C:\Users\Giusi\ConsigliaViaggiMaven\src\main\java\presenter\MenuPresenter.java
C:\Users\Giusi\ConsigliaViaggiMaven\src\main\java\presenter\RicercaStrutturaPresenter.java
C:\Users\Giusi\ConsigliaViaggiMaven\src\main\java\presenter\FotoCell.java
